3168.79
3150.65
3131.08
3212.68
3227.89
3291.7
3443.0
3410.66
3350.0
3346.81
3373.37
3364.94
3335.96
3332.01
3352.41
3372.95
3386.54
3377.49
3373.48
3371.05
3333.71
3346.0
3329.04
3333.3
3317.51
3323.67
3343.61
3330.89
3334.09
3348.43
3345.03
3339.29
3325.74
3327.28
3332.36
3326.12
3312.97
3300.02
3309.87
3304.45
3290.38
3298.97
3328.58
3340.0
3339.2
3323.86
3342.55
3344.29
3333.04
3320.94
3338.98
3326.39
3344.86
3367.95
3355.28
3358.46
3363.52
3363.31
3379.86
3357.39
3345.79
3343.75
3344.07
3336.15
3344.19
3349.0
3331.07
3338.25
3336.9
3330.0
3338.05
3346.1
3346.11
3329.88
3339.36
3381.24
3361.0
3346.09
3363.31
3358.46
3344.0
3380.01
3360.18
3374.97
3368.98
3362.51
3389.35
3402.13
3397.45
3377.84
3372.0
3383.39
3372.79
3372.79
3372.79
3366.37
3374.2
3358.57
3367.79
3369.3
3368.39
3361.96
3381.74
3362.6
3342.59
3340.05
3342.42
3346.27
3347.08
3346.35
3346.35
3343.5
3345.58
3343.26
3351.92
3350.45
3366.47
3363.58
3353.28
3368.36
3369.48
3370.21
3365.31
3363.26
3355.54
3351.34
3352.95
3350.37
3343.85
3344.81
3350.36
3345.62
3342.85
3332.14
3311.05
3310.43
3308.54
3314.04
3296.74
3307.15
3313.45
3315.39
None
3284.96
3268.52
3269.67
3273.88
3272.7
3265.33
3275.68
3284.56
3285.14
3273.6
3285.78
3296.31
3313.52
3306.83
3302.46
3300.0
3299.9
3298.69
3289.99
3270.0
3274.73
3248.17
3267.63
3279.75
3280.0
3283.45
3280.2
3280.04
3298.12
3295.25
3294.95
3295.45
3283.62
3287.56
3276.41
3296.62
3294.46
3293.77
3279.34
3285.17
3284.62
3256.06
3282.75
3292.47
3288.91
3268.16
3269.12
3274.08
3252.23
3246.39
3220.89
3247.83
3241.84
3241.64
3245.97
3240.18
3219.21
3241.75
3229.33
3252.26
3236.75
3220.42
3227.86
3235.52
3235.37
3242.47
3234.57
3240.72
3232.42
3245.52
3239.28
3236.89
3265.0
3278.91
3266.71
3276.45
3276.26
3267.39
3251.06
3251.16
3255.0
3256.93
3270.71
3272.27
3283.86
3272.42
3253.17
3266.72
3256.8
3255.81
3251.0
3260.0
3264.27
3266.29
None
None
None
3264.47
3268.34
3278.31
3276.35
3272.92
3266.3
3262.01
3263.29
3266.22
3270.95
3273.0
3283.43
3330.98
3331.72
3323.43
3334.0
3328.13
3376.6
3352.62
3374.93
3353.57
3383.18
3384.38
3383.14
3372.93
3379.19
3369.36
3375.89
3373.64
3374.64
3369.39
3341.14
3339.75
3332.36
3337.27
3336.08
3321.91
3341.77
3335.06
3335.49
3363.31
3345.89
3359.91
3345.15
3349.99
3348.48
3350.0
3359.77
3354.47
3365.63
3361.9
3376.28
3369.99
3388.26
3411.03
3436.05
3438.77
3438.55
3444.2
3458.39
3464.93
3526.06
