4599.3
4596.7
4593.2
4598.0
4587.1
4595.5
4611.9
4590.4
4586.6
4580.2
4580.4
4596.7
4592.9
4588.2
4593.1
4581.4
4588.3
4578.7
4590.7
4606.5
4615.0
4612.0
4620.0
4615.5
4627.0
4631.3
4625.1
4625.4
4622.9
4614.0
4615.0
4614.9
4613.5
4613.5
4608.2
4616.9
4616.9
4615.1
4616.9
4616.9
4614.3
4615.0
4614.8
4614.9
4607.9
4603.3
4605.3
4596.6
4590.4
4587.8
4578.2
4587.1
4586.8
4584.8
4592.0
4588.4
4591.2
4584.9
4586.4
4593.7
4595.0
4597.6
4594.1
4598.1
4601.6
4604.6
4604.4
4601.1
4601.1
4597.4
4598.4
4599.0
4600.4
4600.0
4588.7
4583.5
4583.5
4574.5
4563.6
4565.2
4575.0
4573.8
4578.6
4577.6
4580.7
4580.4
4575.4
4572.7
4569.9
4566.0
4567.9
4563.0
4533.0
4553.0
4556.1
4555.2
4555.0
4527.8
4539.1
4483.5
4470.0
4493.8
4481.6
4490.2
4499.0
4498.9
4498.9
4489.0
4445.5
4489.0
4456.2
4457.6
4443.0
4489.0
4450.0
4438.4
4440.0
4450.0
4448.0
4440.0
4430.0
4430.0
4417.0
4417.0
4420.0
4420.3
4430.0
4430.4
4426.1
4418.2
4417.4
4401.8
4391.1
4370.0
4380.5
4416.5
4388.7
4402.3
4355.4
4411.5
4434.0
4431.2
4426.9
4424.4
4401.4
4432.0
4438.5
4424.5
4431.1
4429.9
4430.0
4427.0
4420.9
4418.4
4412.6
4420.0
4417.9
4410.6
4416.3
4430.0
4420.4
4418.8
4435.0
4446.0
4442.7
4436.0
4439.5
None
4420.2
4422.9
4423.3
4423.0
4421.2
4425.0
4425.0
4425.1
4425.0
4424.8
4423.8
4425.0
4429.9
4429.5
4427.0
4414.4
4405.0
4368.0
4375.0
4379.9
4386.6
4376.7
4345.8
4316.6
4337.9
4337.9
4312.7
4297.2
4313.6
4309.9
4359.3
4359.5
4362.0
4361.3
4365.2
4365.2
4377.0
4387.6
4370.1
4358.2
4370.0
4362.5
4370.0
4371.6
4367.6
4368.2
4375.0
4375.3
4382.9
4354.5
4353.7
4352.0
4360.6
4364.0
4374.9
4365.1
4365.1
4365.0
4350.1
4350.6
4350.2
4359.9
4350.1
4361.5
4360.4
4360.1
4360.5
4361.0
4367.8
4360.1
4360.1
4364.4
4361.1
4360.8
4365.0
4355.1
4375.0
4355.3
